incarceration.change.exploration
…
Table of Incarceration Rates by County and Year

## # A tibble: 47 x 65
##     year `Adams County` `Alamosa County` `Arapahoe County`
##  * <int>          <dbl>            <dbl>             <dbl>
##  1  1970     0.06191512       0.02755960        0.03385732
##  2  1971     0.05738380       0.03324026        0.03338407
##  3  1972     0.05206865       0.03824579        0.03176330
##  4  1973     0.04788776       0.04682901        0.03020536
##  5  1974     0.04520893       0.05334045        0.02970311
##  6  1975     0.04248368       0.05579665        0.02894898
##  7  1976     0.03969631       0.06249219        0.02833731
##  8  1977     0.03770271       0.07171730        0.02760417
##  9  1978     0.03444416       0.07854431        0.02633817
## 10  1979     0.04341362       0.08050902        0.03876901
## # ... with 37 more rows, and 61 more variables: `Archuleta County` <dbl>,
## #   `Baca County` <dbl>, `Bent County` <dbl>, `Boulder County` <dbl>,
## #   `Broomfield County` <dbl>, `Chaffee County` <dbl>, `Cheyenne
## #   County` <dbl>, `Clear Creek County` <dbl>, `Conejos County` <dbl>,
## #   `Costilla County` <dbl>, `Crowley County` <dbl>, `Custer
## #   County` <dbl>, `Delta County` <dbl>, `Denver County` <dbl>, `Dolores
## #   County` <dbl>, `Douglas County` <dbl>, `Eagle County` <dbl>, `El Paso
## #   County` <dbl>, `Elbert County` <dbl>, `Fremont County` <dbl>,
## #   `Garfield County` <dbl>, `Gilpin County` <dbl>, `Grand County` <dbl>,
…
